{
  "data": {
    "assetTypeCategories": {
      "items": [
        {
          "id": "5ae9cce4-b25f-447f-8e6f-a534c9a07934",
          "name": "Licenses"
        }
      ],
      "pageInfo": {
        "currentPage": 1,
        "totalPages": 2
      },
      "totalItems": 3
    }
  }
}