{
  "data": {
    "employees": {
      "items": [
        {
          "id": "b48db556-3bd0-479e-9f1a-231be9636887",
          "firstName": "Danielle",
          "lastName": "Kelly",
          "email": "danielle@gmail.com",
          "role": "ADMIN",
          "birthday": "2022-02-08T18:34:45.480Z",
          "reportingManager": {
            "firstName": "Edmund"
          },
          "position": {
            "id": "cabfb51b-41c5-4f4d-afd5-146c796391ad",
            "name": "manager"
          },
          "location": {
            "id": "cabfb51b-41c5-4f4d-afd5-146c796391af",
            "name": "Lisbon"
          }
        },
        {
          "id": "5bea1a4d-b457-47c9-bf8b-72f50182b707",
          "firstName": "Edmund",
          "lastName": "Hogan",
          "email": "edmund@gmail.com",
          "role": "EMPLOYEE",
          "birthday": "2022-02-28T12:03:00.480Z",
          "reportingManager": {
            "firstName": "Jacob"
          },
          "position": {
            "id": "cabfb51b-41c5-4f4d-afd5-146c796391ad",
            "name": "manager"
          },
          "location": {
            "id": "cabfb51b-41c5-4f4d-afd5-146c796391af",
            "name": "Lisbon"
          }
        },
        {
          "id": "6bac1755-c88c-4462-ae14-527b54b03e0d",
          "firstName": "Geneva",
          "lastName": "Norman",
          "email": "geneva@gmail.com",
          "role": "EMPLOYEE",
          "birthday": "2022-01-16T08:12:50.480Z",
          "reportingManager": {
            "firstName": "Jacob"
          },
          "position": {
            "id": "cabfb51b-41c5-4f4d-afd5-146c796391ad",
            "name": "manager"
          },
          "location": {
            "id": "cabfb51b-41c5-4f4d-afd5-146c796391af",
            "name": "Lisbon"
          }
        },
        {
          "id": "48b560ab-7450-4088-b6bb-f57638ea0877",
          "firstName": "Jacob",
          "lastName": "Morris",
          "email": "jacob@gmail.com",
          "role": "ADMIN",
          "birthday": "2022-03-23T19:37:14.480Z",
          "reportingManager": {
            "firstName": "Edmund"
          },
          "position": {
            "id": "cabfb51b-41c5-4f4d-afd5-146c796391ad",
            "name": "manager"
          },
          "location": {
            "id": "cabfb51b-41c5-4f4d-afd5-146c796391af",
            "name": "Lisbon"
          }
        },
        {
          "id": "493a5be9-01ba-47c6-95c1-29c230528520",
          "firstName": "Tom",
          "lastName": "Johns",
          "email": "tom.johns@gmail.com",
          "role": "ADMIN",
          "birthday": "2022-05-26T17:26:17.186Z",
          "reportingManager": {
            "firstName": "Jacob"
          },
          "position": {
            "id": "cabfb51b-41c5-4f4d-afd5-146c796391ad",
            "name": "manager"
          },
          "location": {
            "id": "79761728-8f51-475f-aa04-42385a0dfe36",
            "name": "Madrid"
          }
        }
      ],
      "pageInfo": {
        "currentPage": 0,
        "totalPages": 2
      },
      "totalItems": 6
    }
  }
}