{
  "data": {
    "locations": {
      "items": [
        {
          "id": "79761728-8f51-475f-aa04-42385a0dfe36",
          "name": "Madrid",
          "country": {
            "id": "0164033e-2381-4d80-aa30-363532352e7d",
            "name": "Spain",
            "iconName": "spain_flag"
          }
        }
      ],
      "pageInfo": {
        "currentPage": 1,
        "totalPages": 2
      },
      "totalItems": 3
    }
  }
}