{
  "data": {
    "locationCountries": {
      "items": [
        {
          "id": "b86cf217-9049-4a15-bef6-4d6849176da4",
          "name": "Ukraine",
          "iconName": "ukraine_flag"
        }
      ],
      "pageInfo": {
        "currentPage": 1,
        "totalPages": 2
      },
      "totalItems": 3
    }
  }
}